{
  "consumes": [
    "application/json"
  ],
  "produces": [
    "application/json"
  ],
  "schemes": [
    "http"
  ],
  "swagger": "2.0",
  "info": {
    "description": "bazaar server is a backend for bazaar accounting system. This documentation describes its APIs",
    "title": "bazaar server",
    "contact": {
      "name": "Max Davidenko",
      "email": "armwebdev@gmail.com"
    },
    "license": {
      "name": "MIT",
      "url": "http://opensource.org/licenses/MIT"
    },
    "version": "0.1.0"
  },
  "basePath": "/",
  "paths": {
    "/areas": {
      "get": {
        "description": "Returns registered areas list",
        "tags": [
          "Areas"
        ],
        "summary": "Get all areas",
        "operationId": "areas",
        "responses": {
          "200": {
            "$ref": "#/responses/areasListResponse"
          },
          "404": {
            "$ref": "#/responses/notFoundError"
          }
        }
      },
      "post": {
        "description": "Creates new area with specified parameters",
        "tags": [
          "Areas"
        ],
        "summary": "Create new area",
        "operationId": "areas",
        "parameters": [
          {
            "description": "area parameters",
            "name": "area",
            "in": "body",
            "required": true,
            "schema": {
              "$ref": "#/definitions/createAreaRequest"
            }
          }
        ],
        "responses": {
          "200": {
            "$ref": "#/definitions/Area"
          },
          "400": {
            "$ref": "#/responses/badRequestError"
          }
        }
      }
    },
    "/areas/{id}": {
      "get": {
        "description": "Returns area with specified id",
        "tags": [
          "Areas"
        ],
        "summary": "Get area by id",
        "operationId": "areas",
        "parameters": [
          {
            "type": "integer",
            "description": "area id",
            "name": "id",
            "in": "path",
            "required": true
          }
        ],
        "responses": {
          "200": {
            "$ref": "#/definitions/Area"
          },
          "400": {
            "$ref": "#/responses/badRequestError"
          },
          "404": {
            "$ref": "#/responses/notFoundError"
          }
        }
      },
      "put": {
        "description": "Updates specified area fields",
        "tags": [
          "Areas"
        ],
        "summary": "Edit existing area",
        "operationId": "areas",
        "parameters": [
          {
            "type": "integer",
            "description": "area id",
            "name": "id",
            "in": "path",
            "required": true
          },
          {
            "description": "area parameters",
            "name": "area",
            "in": "body",
            "required": true,
            "schema": {
              "$ref": "#/definitions/createAreaRequest"
            }
          }
        ],
        "responses": {
          "204": {
            "$ref": "#/responses/noContentResponse"
          },
          "400": {
            "$ref": "#/responses/badRequestError"
          }
        }
      },
      "delete": {
        "description": "Deletes area with specified id",
        "tags": [
          "Areas"
        ],
        "summary": "Delete area by id",
        "operationId": "areas",
        "parameters": [
          {
            "type": "integer",
            "description": "area id",
            "name": "id",
            "in": "path",
            "required": true
          }
        ],
        "responses": {
          "204": {
            "$ref": "#/responses/noContentResponse"
          },
          "404": {
            "$ref": "#/responses/notFoundError"
          }
        }
      }
    },
    "/areas/{id}/rows": {
      "get": {
        "description": "Returns area rows list",
        "tags": [
          "Areas"
        ],
        "summary": "Get area rows",
        "operationId": "areas",
        "parameters": [
          {
            "type": "integer",
            "description": "area id",
            "name": "id",
            "in": "path",
            "required": true
          }
        ],
        "responses": {
          "200": {
            "$ref": "#/responses/areaRowsListResponse"
          },
          "400": {
            "$ref": "#/responses/badRequestError"
          },
          "404": {
            "$ref": "#/responses/notFoundError"
          }
        }
      }
    },
    "/customers": {
      "get": {
        "description": "Returns customers list",
        "tags": [
          "Customers"
        ],
        "summary": "Get all customers",
        "operationId": "customers",
        "responses": {
          "200": {
            "$ref": "#/responses/customersListResponse"
          },
          "404": {
            "$ref": "#/responses/notFoundError"
          }
        }
      },
      "post": {
        "description": "Creates new customer with specified parameters",
        "tags": [
          "Customers"
        ],
        "summary": "Create new customer",
        "operationId": "customers",
        "parameters": [
          {
            "description": "customer parameters",
            "name": "customer",
            "in": "body",
            "required": true,
            "schema": {
              "$ref": "#/definitions/createCustomerRequest"
            }
          }
        ],
        "responses": {
          "200": {
            "$ref": "#/definitions/Customer"
          },
          "400": {
            "$ref": "#/responses/badRequestError"
          }
        }
      }
    },
    "/customers/{id}": {
      "get": {
        "description": "Returns customer with specified id",
        "tags": [
          "Customers"
        ],
        "summary": "Get customer by id",
        "operationId": "customers",
        "parameters": [
          {
            "type": "integer",
            "description": "customer id",
            "name": "id",
            "in": "path",
            "required": true
          }
        ],
        "responses": {
          "200": {
            "$ref": "#/definitions/Customer"
          },
          "400": {
            "$ref": "#/responses/badRequestError"
          },
          "404": {
            "$ref": "#/responses/notFoundError"
          }
        }
      },
      "put": {
        "description": "Updates specified customer fields",
        "tags": [
          "Customers"
        ],
        "summary": "Edit existing customer",
        "operationId": "customers",
        "parameters": [
          {
            "type": "integer",
            "description": "customer id",
            "name": "id",
            "in": "path",
            "required": true
          },
          {
            "description": "customer parameters",
            "name": "unit",
            "in": "body",
            "required": true,
            "schema": {
              "$ref": "#/definitions/updateCustomerRequest"
            }
          }
        ],
        "responses": {
          "204": {
            "$ref": "#/responses/noContentResponse"
          },
          "400": {
            "$ref": "#/responses/badRequestError"
          }
        }
      },
      "delete": {
        "description": "Deletes customer with specified id",
        "tags": [
          "Customers"
        ],
        "summary": "Delete customer by id",
        "operationId": "customers",
        "parameters": [
          {
            "type": "integer",
            "description": "customer id",
            "name": "id",
            "in": "path",
            "required": true
          }
        ],
        "responses": {
          "204": {
            "$ref": "#/responses/noContentResponse"
          },
          "404": {
            "$ref": "#/responses/notFoundError"
          }
        }
      }
    },
    "/place/{id}/attributes/{attribute-id}": {
      "get": {
        "description": "Returns place attribute with specified id",
        "tags": [
          "Places"
        ],
        "summary": "Get place attribute by place id",
        "operationId": "places",
        "parameters": [
          {
            "type": "integer",
            "description": "place id",
            "name": "id",
            "in": "path",
            "required": true
          },
          {
            "type": "integer",
            "description": "place attribute id",
            "name": "attribute-id",
            "in": "path",
            "required": true
          }
        ],
        "responses": {
          "200": {
            "$ref": "#/definitions/PlaceAttribute"
          },
          "400": {
            "$ref": "#/responses/badRequestError"
          },
          "404": {
            "$ref": "#/responses/notFoundError"
          }
        }
      }
    },
    "/places": {
      "post": {
        "description": "Creates new row place with specified parameters",
        "tags": [
          "Places"
        ],
        "summary": "Create new row place",
        "operationId": "places",
        "parameters": [
          {
            "description": "row place parameters",
            "name": "place",
            "in": "body",
            "required": true,
            "schema": {
              "$ref": "#/definitions/createPlaceRequest"
            }
          }
        ],
        "responses": {
          "200": {
            "$ref": "#/definitions/Place"
          },
          "400": {
            "$ref": "#/responses/badRequestError"
          }
        }
      }
    },
    "/places/{id}": {
      "get": {
        "description": "Returns place with specified id",
        "tags": [
          "Places"
        ],
        "summary": "Get place by id",
        "operationId": "places",
        "parameters": [
          {
            "type": "integer",
            "description": "place id",
            "name": "id",
            "in": "path",
            "required": true
          }
        ],
        "responses": {
          "200": {
            "$ref": "#/definitions/Place"
          },
          "400": {
            "$ref": "#/responses/badRequestError"
          },
          "404": {
            "$ref": "#/responses/notFoundError"
          }
        }
      },
      "put": {
        "description": "Updates specified row place fields",
        "tags": [
          "Places"
        ],
        "summary": "Edit existing row place",
        "operationId": "places",
        "parameters": [
          {
            "type": "integer",
            "description": "place id",
            "name": "id",
            "in": "path",
            "required": true
          },
          {
            "description": "place parameters",
            "name": "place",
            "in": "body",
            "required": true,
            "schema": {
              "$ref": "#/definitions/updatePlaceRequest"
            }
          }
        ],
        "responses": {
          "204": {
            "$ref": "#/responses/noContentResponse"
          },
          "400": {
            "$ref": "#/responses/badRequestError"
          }
        }
      },
      "delete": {
        "description": "Deletes row place with specified id",
        "tags": [
          "Places"
        ],
        "summary": "Delete row place by id",
        "operationId": "places",
        "parameters": [
          {
            "type": "integer",
            "description": "place id",
            "name": "id",
            "in": "path",
            "required": true
          }
        ],
        "responses": {
          "204": {
            "$ref": "#/responses/noContentResponse"
          },
          "404": {
            "$ref": "#/responses/notFoundError"
          }
        }
      }
    },
    "/places/{id}/attributes": {
      "get": {
        "description": "Returns specified place attributes",
        "tags": [
          "Places"
        ],
        "summary": "Get place attributes by place id",
        "operationId": "places",
        "parameters": [
          {
            "type": "integer",
            "description": "place id",
            "name": "id",
            "in": "path",
            "required": true
          }
        ],
        "responses": {
          "200": {
            "$ref": "#/responses/placeAttributesListResponse"
          },
          "400": {
            "$ref": "#/responses/badRequestError"
          },
          "404": {
            "$ref": "#/responses/notFoundError"
          }
        }
      },
      "post": {
        "description": "Creates new row place attribute with specified parameters",
        "tags": [
          "Places"
        ],
        "summary": "Create new place attribute",
        "operationId": "places",
        "parameters": [
          {
            "type": "integer",
            "description": "place id",
            "name": "id",
            "in": "path",
            "required": true
          },
          {
            "description": "place attribute parameters",
            "name": "place-attribute",
            "in": "body",
            "required": true,
            "schema": {
              "$ref": "#/definitions/createPlaceAttributeRequest"
            }
          }
        ],
        "responses": {
          "200": {
            "$ref": "#/definitions/Place"
          },
          "400": {
            "$ref": "#/responses/badRequestError"
          }
        }
      }
    },
    "/places/{id}/attributes/{attribute-id}": {
      "put": {
        "description": "Updates specified row place attribute fields",
        "tags": [
          "Places"
        ],
        "summary": "Edit existing row place attribute",
        "operationId": "places",
        "parameters": [
          {
            "type": "integer",
            "description": "place id",
            "name": "id",
            "in": "path",
            "required": true
          },
          {
            "type": "integer",
            "description": "place attribute id",
            "name": "attribute-id",
            "in": "path",
            "required": true
          },
          {
            "description": "place attribute parameters",
            "name": "place-attribute",
            "in": "body",
            "required": true,
            "schema": {
              "$ref": "#/definitions/updatePlaceAttributeRequest"
            }
          }
        ],
        "responses": {
          "204": {
            "$ref": "#/responses/noContentResponse"
          },
          "400": {
            "$ref": "#/responses/badRequestError"
          }
        }
      },
      "delete": {
        "description": "Deletes row place attribute with specified id",
        "tags": [
          "Places"
        ],
        "summary": "Delete row place attribute by place id",
        "operationId": "places",
        "parameters": [
          {
            "type": "integer",
            "description": "place id",
            "name": "id",
            "in": "path",
            "required": true
          },
          {
            "type": "integer",
            "description": "place attribute id",
            "name": "attribute-id",
            "in": "path",
            "required": true
          }
        ],
        "responses": {
          "204": {
            "$ref": "#/responses/noContentResponse"
          },
          "404": {
            "$ref": "#/responses/notFoundError"
          }
        }
      }
    },
    "/places/{id}/tariffs": {
      "get": {
        "description": "Returns specified place tariffs",
        "tags": [
          "Places"
        ],
        "summary": "Get place tariffs by place id",
        "operationId": "places",
        "parameters": [
          {
            "type": "integer",
            "description": "place id",
            "name": "id",
            "in": "path",
            "required": true
          }
        ],
        "responses": {
          "200": {
            "$ref": "#/responses/placeTariffsListResponse"
          },
          "400": {
            "$ref": "#/responses/badRequestError"
          },
          "404": {
            "$ref": "#/responses/notFoundError"
          }
        }
      },
      "post": {
        "description": "Binds specified tariff to specified place",
        "tags": [
          "Places"
        ],
        "summary": "Bind tariff to place",
        "operationId": "places",
        "parameters": [
          {
            "type": "integer",
            "description": "place id",
            "name": "id",
            "in": "path",
            "required": true
          },
          {
            "description": "place tariff parameters",
            "name": "place-tariff",
            "in": "body",
            "required": true,
            "schema": {
              "$ref": "#/definitions/bindTariffToPlaceRequest"
            }
          }
        ],
        "responses": {
          "200": {
            "$ref": "#/definitions/PlaceTariff"
          },
          "400": {
            "$ref": "#/responses/badRequestError"
          }
        }
      }
    },
    "/places/{id}/tariffs/{binding-id}": {
      "delete": {
        "description": "Deletes specified tariff binding from place",
        "tags": [
          "Places"
        ],
        "summary": "Unbind tariff from place",
        "operationId": "places",
        "parameters": [
          {
            "type": "integer",
            "description": "place id",
            "name": "id",
            "in": "path",
            "required": true
          },
          {
            "type": "integer",
            "description": "place tariff id",
            "name": "binding-id",
            "in": "path",
            "required": true
          }
        ],
        "responses": {
          "204": {
            "$ref": "#/responses/noContentResponse"
          },
          "404": {
            "$ref": "#/responses/notFoundError"
          }
        }
      }
    },
    "/rows": {
      "post": {
        "description": "Creates new area row with specified parameters",
        "tags": [
          "Rows"
        ],
        "summary": "Create new area row",
        "operationId": "rows",
        "parameters": [
          {
            "description": "area row parameters",
            "name": "row",
            "in": "body",
            "required": true,
            "schema": {
              "$ref": "#/definitions/createRowRequest"
            }
          }
        ],
        "responses": {
          "200": {
            "$ref": "#/definitions/Row"
          },
          "400": {
            "$ref": "#/responses/badRequestError"
          }
        }
      }
    },
    "/rows/{id}": {
      "get": {
        "description": "Returns row with specified id",
        "tags": [
          "Rows"
        ],
        "summary": "Get row by id",
        "operationId": "rows",
        "parameters": [
          {
            "type": "integer",
            "description": "row id",
            "name": "id",
            "in": "path",
            "required": true
          }
        ],
        "responses": {
          "200": {
            "$ref": "#/definitions/Row"
          },
          "400": {
            "$ref": "#/responses/badRequestError"
          },
          "404": {
            "$ref": "#/responses/notFoundError"
          }
        }
      },
      "put": {
        "description": "Updates specified area row fields",
        "tags": [
          "Rows"
        ],
        "summary": "Edit existing area row",
        "operationId": "rows",
        "parameters": [
          {
            "type": "integer",
            "description": "row id",
            "name": "id",
            "in": "path",
            "required": true
          },
          {
            "description": "row parameters",
            "name": "row",
            "in": "body",
            "required": true,
            "schema": {
              "$ref": "#/definitions/updateRowRequest"
            }
          }
        ],
        "responses": {
          "204": {
            "$ref": "#/responses/noContentResponse"
          },
          "400": {
            "$ref": "#/responses/badRequestError"
          }
        }
      },
      "delete": {
        "description": "Deletes area row with specified id",
        "tags": [
          "Rows"
        ],
        "summary": "Delete area row by id",
        "operationId": "rows",
        "parameters": [
          {
            "type": "integer",
            "description": "row id",
            "name": "id",
            "in": "path",
            "required": true
          }
        ],
        "responses": {
          "204": {
            "$ref": "#/responses/noContentResponse"
          },
          "404": {
            "$ref": "#/responses/notFoundError"
          }
        }
      }
    },
    "/rows/{id}/places": {
      "get": {
        "description": "Returns row places list",
        "tags": [
          "Rows"
        ],
        "summary": "Get row places",
        "operationId": "rows",
        "parameters": [
          {
            "type": "integer",
            "description": "row id",
            "name": "id",
            "in": "path",
            "required": true
          }
        ],
        "responses": {
          "200": {
            "$ref": "#/responses/rowPlacesListResponse"
          },
          "400": {
            "$ref": "#/responses/badRequestError"
          },
          "404": {
            "$ref": "#/responses/notFoundError"
          }
        }
      }
    },
    "/tariffs": {
      "get": {
        "description": "Returns tariffs list",
        "tags": [
          "Tariffs"
        ],
        "summary": "Get all tariffs",
        "operationId": "tariffs",
        "responses": {
          "200": {
            "$ref": "#/responses/tariffsListResponse"
          },
          "404": {
            "$ref": "#/responses/notFoundError"
          }
        }
      },
      "post": {
        "description": "Creates new tariff with specified parameters",
        "tags": [
          "Tariffs"
        ],
        "summary": "Create new tariff",
        "operationId": "tariffs",
        "parameters": [
          {
            "description": "tariff parameters",
            "name": "tariff",
            "in": "body",
            "required": true,
            "schema": {
              "$ref": "#/definitions/createTariffRequest"
            }
          }
        ],
        "responses": {
          "200": {
            "$ref": "#/definitions/Tariff"
          },
          "400": {
            "$ref": "#/responses/badRequestError"
          }
        }
      }
    },
    "/tariffs/{id}": {
      "get": {
        "description": "Returns tariff with specified id",
        "tags": [
          "Tariffs"
        ],
        "summary": "Get tariff by id",
        "operationId": "tariffs",
        "parameters": [
          {
            "type": "integer",
            "description": "tariff id",
            "name": "id",
            "in": "path",
            "required": true
          }
        ],
        "responses": {
          "200": {
            "$ref": "#/definitions/Tariff"
          },
          "400": {
            "$ref": "#/responses/badRequestError"
          },
          "404": {
            "$ref": "#/responses/notFoundError"
          }
        }
      },
      "put": {
        "description": "Updates specified tariff fields",
        "tags": [
          "Tariffs"
        ],
        "summary": "Edit existing tariff",
        "operationId": "tariffs",
        "parameters": [
          {
            "type": "integer",
            "description": "tariff id",
            "name": "id",
            "in": "path",
            "required": true
          },
          {
            "description": "tariff parameters",
            "name": "tariff",
            "in": "body",
            "required": true,
            "schema": {
              "$ref": "#/definitions/updateTariffRequest"
            }
          }
        ],
        "responses": {
          "204": {
            "$ref": "#/responses/noContentResponse"
          },
          "400": {
            "$ref": "#/responses/badRequestError"
          }
        }
      },
      "delete": {
        "description": "Deletes tariff with specified id",
        "tags": [
          "Tariffs"
        ],
        "summary": "Delete tariff by id",
        "operationId": "tariff",
        "parameters": [
          {
            "type": "integer",
            "description": "tariff id",
            "name": "id",
            "in": "path",
            "required": true
          }
        ],
        "responses": {
          "204": {
            "$ref": "#/responses/noContentResponse"
          },
          "404": {
            "$ref": "#/responses/notFoundError"
          }
        }
      }
    },
    "/units": {
      "get": {
        "description": "Returns units list",
        "tags": [
          "Units"
        ],
        "summary": "Get all units",
        "operationId": "units",
        "responses": {
          "200": {
            "$ref": "#/responses/unitsListResponse"
          },
          "404": {
            "$ref": "#/responses/notFoundError"
          }
        }
      },
      "post": {
        "description": "Creates new unit with specified parameters",
        "tags": [
          "Units"
        ],
        "summary": "Create new unit",
        "operationId": "units",
        "parameters": [
          {
            "description": "unit parameters",
            "name": "unit",
            "in": "body",
            "required": true,
            "schema": {
              "$ref": "#/definitions/createUnitRequest"
            }
          }
        ],
        "responses": {
          "200": {
            "$ref": "#/definitions/Unit"
          },
          "400": {
            "$ref": "#/responses/badRequestError"
          }
        }
      }
    },
    "/units/{id}": {
      "get": {
        "description": "Returns unit with specified id",
        "tags": [
          "Units"
        ],
        "summary": "Get unit by id",
        "operationId": "units",
        "parameters": [
          {
            "type": "integer",
            "description": "unit id",
            "name": "id",
            "in": "path",
            "required": true
          }
        ],
        "responses": {
          "200": {
            "$ref": "#/definitions/Unit"
          },
          "400": {
            "$ref": "#/responses/badRequestError"
          },
          "404": {
            "$ref": "#/responses/notFoundError"
          }
        }
      },
      "put": {
        "description": "Updates specified unit fields",
        "tags": [
          "Units"
        ],
        "summary": "Edit existing unit",
        "operationId": "units",
        "parameters": [
          {
            "type": "integer",
            "description": "unit id",
            "name": "id",
            "in": "path",
            "required": true
          },
          {
            "description": "unit parameters",
            "name": "unit",
            "in": "body",
            "required": true,
            "schema": {
              "$ref": "#/definitions/updateUnitRequest"
            }
          }
        ],
        "responses": {
          "204": {
            "$ref": "#/responses/noContentResponse"
          },
          "400": {
            "$ref": "#/responses/badRequestError"
          }
        }
      },
      "delete": {
        "description": "Deletes unit with specified id",
        "tags": [
          "Units"
        ],
        "summary": "Delete unit by id",
        "operationId": "units",
        "parameters": [
          {
            "type": "integer",
            "description": "unit id",
            "name": "id",
            "in": "path",
            "required": true
          }
        ],
        "responses": {
          "204": {
            "$ref": "#/responses/noContentResponse"
          },
          "404": {
            "$ref": "#/responses/notFoundError"
          }
        }
      }
    }
  },
  "definitions": {
    "Area": {
      "description": "Represents the area in the bazaar",
      "type": "object",
      "properties": {
        "ControllerID": {
          "type": "integer",
          "format": "uint64"
        },
        "ID": {
          "type": "integer",
          "format": "uint64"
        },
        "Name": {
          "type": "string"
        }
      },
      "x-go-package": "bitbucket.org/max_davidenko/bazaar-server/internal/model"
    },
    "Customer": {
      "description": "Represents the selling place's renter",
      "type": "object",
      "properties": {
        "FirstName": {
          "type": "string"
        },
        "ID": {
          "type": "integer",
          "format": "uint64"
        },
        "Inn": {
          "type": "string"
        },
        "LastName": {
          "type": "string"
        },
        "MiddleName": {
          "type": "string"
        }
      },
      "x-go-package": "bitbucket.org/max_davidenko/bazaar-server/internal/model"
    },
    "Place": {
      "description": "Represents the selling place in the row",
      "type": "object",
      "properties": {
        "Attributes": {
          "type": "array",
          "items": {
            "$ref": "#/definitions/PlaceAttribute"
          }
        },
        "Customer": {
          "$ref": "#/definitions/Customer"
        },
        "CustomerID": {
          "type": "integer",
          "format": "uint64"
        },
        "ID": {
          "type": "integer",
          "format": "uint64"
        },
        "Name": {
          "type": "string"
        },
        "RowID": {
          "type": "integer",
          "format": "uint64"
        },
        "Tariffs": {
          "type": "array",
          "items": {
            "$ref": "#/definitions/Tariff"
          }
        }
      },
      "x-go-package": "bitbucket.org/max_davidenko/bazaar-server/internal/model"
    },
    "PlaceAttribute": {
      "description": "Represents the attribute of selling place",
      "type": "object",
      "properties": {
        "ID": {
          "type": "integer",
          "format": "uint64"
        },
        "Name": {
          "type": "string"
        },
        "PlaceID": {
          "type": "integer",
          "format": "uint64"
        },
        "UnitID": {
          "type": "integer",
          "format": "uint64"
        },
        "Value": {
          "type": "number",
          "format": "float"
        }
      },
      "x-go-package": "bitbucket.org/max_davidenko/bazaar-server/internal/model"
    },
    "PlaceTariff": {
      "description": "Represents the link between selling place and tariff",
      "type": "object",
      "properties": {
        "ID": {
          "type": "integer",
          "format": "uint64"
        },
        "PlaceID": {
          "type": "integer",
          "format": "uint64"
        },
        "TariffID": {
          "type": "integer",
          "format": "uint64"
        }
      },
      "x-go-package": "bitbucket.org/max_davidenko/bazaar-server/internal/model"
    },
    "Row": {
      "description": "Represents the row in the bazaar area",
      "type": "object",
      "properties": {
        "AreaID": {
          "type": "integer",
          "format": "uint64"
        },
        "ID": {
          "type": "integer",
          "format": "uint64"
        },
        "Name": {
          "type": "string"
        }
      },
      "x-go-package": "bitbucket.org/max_davidenko/bazaar-server/internal/model"
    },
    "Tariff": {
      "description": "Represents the tariff to pay for selling place",
      "type": "object",
      "properties": {
        "ID": {
          "type": "integer",
          "format": "uint64"
        },
        "Name": {
          "type": "string"
        },
        "UnitID": {
          "type": "integer",
          "format": "uint64"
        },
        "Value": {
          "type": "number",
          "format": "float"
        }
      },
      "x-go-package": "bitbucket.org/max_davidenko/bazaar-server/internal/model"
    },
    "Unit": {
      "description": "Represents the measure unit",
      "type": "object",
      "properties": {
        "ID": {
          "type": "integer",
          "format": "uint64"
        },
        "Name": {
          "type": "string"
        }
      },
      "x-go-package": "bitbucket.org/max_davidenko/bazaar-server/internal/model"
    },
    "areaRowsListResponse": {
      "description": "An area rows list",
      "type": "object",
      "properties": {
        "Body": {
          "description": "Array of row models\nin:body",
          "type": "object",
          "properties": {
            "rows": {
              "type": "array",
              "items": {
                "$ref": "#/definitions/Row"
              },
              "x-go-name": "Rows"
            }
          }
        }
      },
      "x-go-package": "bitbucket.org/max_davidenko/bazaar-server/api/swagger"
    },
    "areasListResponse": {
      "description": "An areas list",
      "type": "object",
      "properties": {
        "Body": {
          "description": "Array of area models\nin:body",
          "type": "object",
          "properties": {
            "areas": {
              "type": "array",
              "items": {
                "$ref": "#/definitions/Area"
              },
              "x-go-name": "Areas"
            }
          }
        }
      },
      "x-go-package": "bitbucket.org/max_davidenko/bazaar-server/api/swagger"
    },
    "bindTariffToPlaceRequest": {
      "description": "Bind tariff to place request",
      "type": "object",
      "properties": {
        "TariffID": {
          "type": "integer",
          "format": "uint64"
        }
      },
      "x-go-package": "bitbucket.org/max_davidenko/bazaar-server/api/swagger"
    },
    "createAreaRequest": {
      "description": "Create area request",
      "type": "object",
      "properties": {
        "ControllerID": {
          "type": "integer",
          "format": "uint64"
        },
        "Name": {
          "type": "string"
        }
      },
      "x-go-package": "bitbucket.org/max_davidenko/bazaar-server/api/swagger"
    },
    "createCustomerRequest": {
      "description": "Create customer request",
      "type": "object",
      "properties": {
        "FirstName": {
          "type": "string"
        },
        "Inn": {
          "type": "string"
        },
        "LastName": {
          "type": "string"
        },
        "MiddleName": {
          "type": "string"
        }
      },
      "x-go-package": "bitbucket.org/max_davidenko/bazaar-server/api/swagger"
    },
    "createPlaceAttributeRequest": {
      "description": "Create row place attribute request",
      "type": "object",
      "properties": {
        "Name": {
          "type": "string"
        },
        "UnitID": {
          "type": "integer",
          "format": "uint64"
        },
        "Value": {
          "type": "number",
          "format": "float"
        }
      },
      "x-go-package": "bitbucket.org/max_davidenko/bazaar-server/api/swagger"
    },
    "createPlaceRequest": {
      "description": "Create row place request",
      "type": "object",
      "properties": {
        "CustomerID": {
          "type": "integer",
          "format": "uint64"
        },
        "Name": {
          "type": "string"
        },
        "RowID": {
          "type": "integer",
          "format": "uint64"
        }
      },
      "x-go-package": "bitbucket.org/max_davidenko/bazaar-server/api/swagger"
    },
    "createRowRequest": {
      "description": "Create area row request",
      "type": "object",
      "properties": {
        "AreaID": {
          "type": "integer",
          "format": "uint64"
        },
        "Name": {
          "type": "string"
        }
      },
      "x-go-package": "bitbucket.org/max_davidenko/bazaar-server/api/swagger"
    },
    "createTariffRequest": {
      "description": "Create tariff request",
      "type": "object",
      "properties": {
        "Name": {
          "type": "string"
        },
        "UnitID": {
          "type": "integer",
          "format": "uint64"
        },
        "Value": {
          "type": "number",
          "format": "float"
        }
      },
      "x-go-package": "bitbucket.org/max_davidenko/bazaar-server/api/swagger"
    },
    "createUnitRequest": {
      "description": "Create unit request",
      "type": "object",
      "properties": {
        "Name": {
          "type": "string"
        }
      },
      "x-go-package": "bitbucket.org/max_davidenko/bazaar-server/api/swagger"
    },
    "customersListResponse": {
      "description": "A customers list",
      "type": "object",
      "properties": {
        "Body": {
          "description": "Array of customer models\nin:body",
          "type": "object",
          "properties": {
            "customers": {
              "type": "array",
              "items": {
                "$ref": "#/definitions/Customer"
              },
              "x-go-name": "Customers"
            }
          }
        }
      },
      "x-go-package": "bitbucket.org/max_davidenko/bazaar-server/api/swagger"
    },
    "placeAttributesListResponse": {
      "description": "Place attributes list",
      "type": "object",
      "properties": {
        "Body": {
          "description": "Array of place attribute models\nin:body",
          "type": "object",
          "properties": {
            "attributes": {
              "type": "array",
              "items": {
                "$ref": "#/definitions/PlaceAttribute"
              },
              "x-go-name": "Attributes"
            }
          }
        }
      },
      "x-go-package": "bitbucket.org/max_davidenko/bazaar-server/api/swagger"
    },
    "placeTariffsListResponse": {
      "description": "Place tariffs list",
      "type": "object",
      "properties": {
        "Body": {
          "description": "Array of place tariff models\nin:body",
          "type": "object",
          "properties": {
            "tariffs": {
              "type": "array",
              "items": {
                "$ref": "#/definitions/PlaceTariff"
              },
              "x-go-name": "Tariffs"
            }
          }
        }
      },
      "x-go-package": "bitbucket.org/max_davidenko/bazaar-server/api/swagger"
    },
    "rowPlacesListResponse": {
      "description": "A row places list",
      "type": "object",
      "properties": {
        "Body": {
          "description": "Array of place models\nin:body",
          "type": "object",
          "properties": {
            "places": {
              "type": "array",
              "items": {
                "$ref": "#/definitions/Place"
              },
              "x-go-name": "Places"
            }
          }
        }
      },
      "x-go-package": "bitbucket.org/max_davidenko/bazaar-server/api/swagger"
    },
    "tariffsListResponse": {
      "description": "Tariffs list",
      "type": "object",
      "properties": {
        "Body": {
          "description": "Array of tariff models\nin:body",
          "type": "object",
          "properties": {
            "tariffs": {
              "type": "array",
              "items": {
                "$ref": "#/definitions/Tariff"
              },
              "x-go-name": "Tariffs"
            }
          }
        }
      },
      "x-go-package": "bitbucket.org/max_davidenko/bazaar-server/api/swagger"
    },
    "unitsListResponse": {
      "description": "Units list",
      "type": "object",
      "properties": {
        "Body": {
          "description": "Array of unit models\nin:body",
          "type": "object",
          "properties": {
            "units": {
              "type": "array",
              "items": {
                "$ref": "#/definitions/Unit"
              },
              "x-go-name": "Units"
            }
          }
        }
      },
      "x-go-package": "bitbucket.org/max_davidenko/bazaar-server/api/swagger"
    },
    "updateCustomerRequest": {
      "description": "Update customer request",
      "type": "object",
      "properties": {
        "FirstName": {
          "type": "string"
        },
        "Inn": {
          "type": "string"
        },
        "LastName": {
          "type": "string"
        },
        "MiddleName": {
          "type": "string"
        }
      },
      "x-go-package": "bitbucket.org/max_davidenko/bazaar-server/api/swagger"
    },
    "updatePlaceAttributeRequest": {
      "description": "Update row place attribute request",
      "type": "object",
      "properties": {
        "Name": {
          "type": "string"
        },
        "UnitID": {
          "type": "integer",
          "format": "uint64"
        },
        "Value": {
          "type": "number",
          "format": "float"
        }
      },
      "x-go-package": "bitbucket.org/max_davidenko/bazaar-server/api/swagger"
    },
    "updatePlaceRequest": {
      "description": "Update row place request",
      "type": "object",
      "properties": {
        "CustomerID": {
          "type": "integer",
          "format": "uint64"
        },
        "Name": {
          "type": "string"
        }
      },
      "x-go-package": "bitbucket.org/max_davidenko/bazaar-server/api/swagger"
    },
    "updateRowRequest": {
      "description": "Update area row request",
      "type": "object",
      "properties": {
        "Name": {
          "type": "string"
        }
      },
      "x-go-package": "bitbucket.org/max_davidenko/bazaar-server/api/swagger"
    },
    "updateTariffRequest": {
      "description": "Update tariff request",
      "type": "object",
      "properties": {
        "Name": {
          "type": "string"
        },
        "UnitID": {
          "type": "integer",
          "format": "uint64"
        },
        "Value": {
          "type": "number",
          "format": "float"
        }
      },
      "x-go-package": "bitbucket.org/max_davidenko/bazaar-server/api/swagger"
    },
    "updateUnitRequest": {
      "description": "Update unit request",
      "type": "object",
      "properties": {
        "Name": {
          "type": "string"
        }
      },
      "x-go-package": "bitbucket.org/max_davidenko/bazaar-server/api/swagger"
    }
  },
  "responses": {
    "areaRowsListResponse": {
      "description": "An area rows list",
      "schema": {
        "type": "object",
        "properties": {
          "rows": {
            "type": "array",
            "items": {
              "$ref": "#/definitions/Row"
            },
            "x-go-name": "Rows"
          }
        }
      }
    },
    "areasListResponse": {
      "description": "An areas list",
      "schema": {
        "type": "object",
        "properties": {
          "areas": {
            "type": "array",
            "items": {
              "$ref": "#/definitions/Area"
            },
            "x-go-name": "Areas"
          }
        }
      }
    },
    "badRequestError": {
      "description": "Bad Request",
      "schema": {
        "type": "object",
        "properties": {
          "message": {
            "description": "Detailed error message",
            "type": "string",
            "x-go-name": "Message"
          }
        }
      }
    },
    "customersListResponse": {
      "description": "A customers list",
      "schema": {
        "type": "object",
        "properties": {
          "customers": {
            "type": "array",
            "items": {
              "$ref": "#/definitions/Customer"
            },
            "x-go-name": "Customers"
          }
        }
      }
    },
    "noContentResponse": {
      "description": "An empty response for no content"
    },
    "notFoundError": {
      "description": "Not Found",
      "schema": {
        "type": "object",
        "properties": {
          "message": {
            "description": "Detailed error message",
            "type": "string",
            "x-go-name": "Message"
          }
        }
      }
    },
    "placeAttributesListResponse": {
      "description": "Place attributes list",
      "schema": {
        "type": "object",
        "properties": {
          "attributes": {
            "type": "array",
            "items": {
              "$ref": "#/definitions/PlaceAttribute"
            },
            "x-go-name": "Attributes"
          }
        }
      }
    },
    "placeTariffsListResponse": {
      "description": "Place tariffs list",
      "schema": {
        "type": "object",
        "properties": {
          "tariffs": {
            "type": "array",
            "items": {
              "$ref": "#/definitions/PlaceTariff"
            },
            "x-go-name": "Tariffs"
          }
        }
      }
    },
    "rowPlacesListResponse": {
      "description": "A row places list",
      "schema": {
        "type": "object",
        "properties": {
          "places": {
            "type": "array",
            "items": {
              "$ref": "#/definitions/Place"
            },
            "x-go-name": "Places"
          }
        }
      }
    },
    "tariffsListResponse": {
      "description": "Tariffs list",
      "schema": {
        "type": "object",
        "properties": {
          "tariffs": {
            "type": "array",
            "items": {
              "$ref": "#/definitions/Tariff"
            },
            "x-go-name": "Tariffs"
          }
        }
      }
    },
    "unitsListResponse": {
      "description": "Units list",
      "schema": {
        "type": "object",
        "properties": {
          "units": {
            "type": "array",
            "items": {
              "$ref": "#/definitions/Unit"
            },
            "x-go-name": "Units"
          }
        }
      }
    }
  },
  "securityDefinitions": {
    "bearer": {
      "type": "apiKey",
      "name": "Authorization",
      "in": "header"
    }
  }
}